{
  "total_amount": "51130.0",
  "order_pic": [
    {
      "movie_name": "欢乐喜剧人",
      "amount": 1784.0
    },
    {
      "movie_name": "一条狗的使命",
      "amount": 1286.0
    },
    {
      "movie_name": "金刚：骷髅岛",
      "amount": 131.0
    },
    {
      "movie_name": "美女与野兽",
      "amount": 230.0
    },
    {
      "movie_name": "金刚狼3：殊死一战",
      "amount": 2039.0
    },
    {
      "movie_name": "生化危机：终章",
      "amount": 1029.0
    },
    {
      "movie_name": "爱乐之城",
      "amount": 1478.0
    },
    {
      "movie_name": "爱乐之城2",
      "amount": 1478.0
    }
  ],
  "order_list": [
    {
      "id": 1,
      "number": "24191",
      "amount": "35.0",
      "movie_name": "欢乐喜剧人",
      "city": "扬州市",
      "nickname": null,
      "subscribe_id": 1,
      "openid": "oLxfsvndXPBbZOE4Wa-N4fLuvWEY",
      "phone": "13621743830",
      "profit": "1.0",
      "state": 30,
      "cinema": "上影四方国际IMAX影城",
      "count": 1,
      "pay_time": "2017-03-22T07:47:37.000Z",
      "created_at": "2017-03-22T09:24:54.000Z",
      "updated_at": "2017-03-22T09:24:54.000Z"
    },
    {
      "id": 2,
      "number": "24179",
      "amount": "140.0",
      "movie_name": "欢乐喜剧人",
      "city": "扬州市",
      "nickname": null,
      "subscribe_id": 1,
      "openid": "oLxfsvjGAuFrpboe_MZ5UzYx9ygs",
      "phone": "15952771295",
      "profit": "4.0",
      "state": 30,
      "cinema": "上影四方国际IMAX影城",
      "count": 4,
      "pay_time": "2017-03-22T07:31:44.000Z",
      "created_at": "2017-03-22T09:24:54.000Z",
      "updated_at": "2017-03-22T09:24:54.000Z"
    }
  ],
  "meta": {
    "current_page": 1,
    "next_page": 2,
    "prev_page": null,
    "total_pages": 74,
    "total_count": 738
  }
}
